oscope/tape_sensor_on_black_on_white.csv

#Digilent WaveForms Oscilloscope Acquisition
#Device Name: Discovery2
#Serial Number: SN:210321AA1CA6
#Date Time: 2019-05-13 19:30:50.106
#Sample rate: 606.061Hz
#Samples: 8000
#Trigger: Source: Channel 1 Type: Edge Condition: Rising Level: 0 V Hyst.: Auto HoldOff: 0 s
#Channel 1: Range: 500 mV/div Offset: -2 V
#Channel 2: Range: 500 mV/div Offset: -2 V

Time (s),Channel 1 (V),Channel 2 (V)
4.2999000000000001,0.16001785233913246,0.088288436732735009
4.3015499999999998,0.16001785233913246,0.088625032681233451
4.3032000000000004,0.16001785233913246,0.088625032681233451
4.3048500000000001,0.16001785233913246,0.088625032681233451
4.3064999999999998,0.16035607717325928,0.088625032681233451
4.3081500000000004,0.15257690598834261,0.088625032681233451
4.3098000000000001,0.15257690598834261,0.088625032681233451
4.3114499999999998,0.15257690598834261,0.088961628629732115
4.3131000000000004,0.15257690598834261,0.088961628629732115
4.3147500000000001,0.15257690598834261,0.088961628629732115
4.3163999999999998,0.15257690598834261,0.088961628629732115
4.3180500000000004,0.15257690598834261,0.088961628629731962
4.3197000000000001,0.15257690598834261,0.088625032681233451
4.3213499999999998,0.15257690598834261,0.088625032681233451
4.3230000000000004,0.15257690598834261,0.088625032681233451
4.3246500000000001,0.15257690598834261,0.088625032681233451
4.3262999999999998,0.15257690598834261,0.088625032681233451
4.3279500000000004,0.15257690598834278,0.088961628629732115
4.3296000000000001,0.15291513082246944,0.088961628629732115
4.3312499999999998,0.15291513082246944,0.088961628629732115
4.3329000000000004,0.15291513082246927,0.088961628629731962
4.3345500000000001,0.15257690598834261,0.088625032681233451
4.3361999999999998,0.15257690598834261,0.088625032681233451
4.3378500000000004,0.15257690598834261,0.088625032681233451
4.3395000000000001,0.15257690598834261,0.088625032681233451
4.3411499999999998,0.15257690598834261,0.088625032681233451
4.3427999999999995,0.15291513082246927,0.088625032681233451
4.3444500000000001,0.15291513082246944,0.088961628629732115
4.3460999999999999,0.15257690598834261,0.088961628629732115
4.3477499999999996,0.15291513082246927,0.088961628629732115
4.3494000000000002,0.15291513082246944,0.088961628629732115
4.3510499999999999,0.15291513082246944,0.088961628629732115
4.3526999999999996,0.15257690598834278,0.088625032681233604
4.3543500000000002,0.15257690598834261,0.088625032681233451
4.3559999999999999,0.15257690598834261,0.088625032681233451
4.3576499999999996,0.15257690598834261,0.088625032681233451
4.3593000000000002,0.15291513082246944,0.088625032681233451
4.3609499999999999,0.15291513082246944,0.088961628629732115
4.3625999999999996,0.15291513082246944,0.088961628629732115
4.3642500000000002,0.15291513082246944,0.088961628629732115
4.3658999999999999,0.15291513082246944,0.088961628629732115
4.3675499999999996,0.15291513082246944,0.088961628629732115
4.3692000000000002,0.15291513082246944,0.088961628629732115
4.3708499999999999,0.15291513082246944,0.088625032681233451
4.3724999999999996,0.15291513082246944,0.088625032681233451
4.3741500000000002,0.15291513082246944,0.088625032681233451
4.3757999999999999,0.15291513082246944,0.088625032681233451
4.3774499999999996,0.15291513082246944,0.088961628629731962
4.3791000000000002,0.15291513082246944,0.088961628629732115
4.3807499999999999,0.15291513082246944,0.088961628629732115
4.3823999999999996,0.15325335565659626,0.088961628629732115
4.3840500000000002,0.15325335565659626,0.088961628629732115
4.3856999999999999,0.15291513082246944,0.088625032681233451
4.3873499999999996,0.15325335565659626,0.088625032681233451
4.3890000000000002,0.15291513082246944,0.088625032681233451
4.3906499999999999,0.15291513082246944,0.088625032681233451
4.3922999999999996,0.15291513082246944,0.088625032681233451
4.3939500000000002,0.15325335565659626,0.088961628629732115
4.3956,0.15325335565659626,0.088961628629732115
4.3972499999999997,0.15325335565659626,0.088961628629732115
4.3989000000000003,0.15325335565659626,0.088961628629732115
4.40055,0.15325335565659626,0.088961628629732115
4.4021999999999997,0.15325335565659626,0.088625032681233451
4.4038500000000003,0.15325335565659626,0.088625032681233451
4.4055,0.15325335565659626,0.088625032681233451
4.4071499999999997,0.15325335565659626,0.088625032681233451
4.4088000000000003,0.15325335565659626,0.088625032681233451
4.41045,0.15325335565659626,0.088961628629732115
4.4120999999999997,0.15325335565659626,0.088961628629732115
4.4137500000000003,0.15325335565659626,0.088961628629732115
4.4154,0.15325335565659626,0.088961628629732115
4.4170499999999997,0.15325335565659626,0.088961628629732115
4.4187000000000003,0.15325335565659626,0.088625032681233451
4.42035,0.15325335565659626,0.088625032681233451
4.4219999999999997,0.15325335565659626,0.088625032681233451
4.4236500000000003,0.15325335565659626,0.088625032681233451
4.4253,0.15325335565659626,0.088625032681233451
4.4269499999999997,0.15325335565659626,0.088961628629732115
4.4286000000000003,0.15325335565659626,0.088961628629732115
4.43025,0.15325335565659626,0.088961628629732115
4.4318999999999997,0.15359158049072308,0.088961628629732115
4.4335500000000003,0.15359158049072308,0.088961628629732115
4.4352,0.15325335565659626,0.088961628629732115
4.4368499999999997,0.15325335565659626,0.088625032681233451
4.4385000000000003,0.15325335565659626,0.088625032681233451
4.44015,0.15325335565659626,0.088625032681233451
4.4417999999999997,0.15325335565659626,0.088625032681233451
4.4434500000000003,0.15325335565659626,0.088961628629732115
4.4451000000000001,0.15325335565659626,0.088961628629732115
4.4467499999999998,0.15359158049072308,0.088961628629732115
4.4484000000000004,0.15359158049072308,0.088961628629732115
4.4500500000000001,0.15359158049072308,0.088961628629732115
4.4516999999999998,0.15359158049072308,0.088961628629732115
4.4533500000000004,0.15359158049072308,0.088625032681233451
4.4550000000000001,0.15359158049072308,0.088625032681233451
4.4566499999999998,0.15359158049072308,0.088625032681233451
4.4583000000000004,0.15359158049072308,0.088625032681233451
4.4599500000000001,0.15359158049072308,0.088961628629732115
4.4615999999999998,0.15359158049072308,0.088961628629732115
4.4632500000000004,0.15359158049072308,0.088961628629732115
4.4649000000000001,0.15359158049072308,0.088961628629732115
4.4665499999999998,0.15359158049072308,0.088961628629732115
4.4682000000000004,0.15359158049072308,0.088961628629731962
4.4698500000000001,0.15359158049072308,0.088625032681233451
4.4714999999999998,0.15359158049072308,0.088625032681233451
4.4731500000000004,0.15359158049072308,0.088625032681233451
4.4748000000000001,0.15359158049072308,0.088625032681233451
4.4764499999999998,0.1539298053248499,0.088625032681233451
4.4781000000000004,0.1539298053248499,0.088961628629732115
4.4797500000000001,0.1539298053248499,0.088961628629732115
4.4813999999999998,0.1539298053248499,0.088961628629732115
4.4830500000000004,0.1539298053248499,0.088961628629731962
4.4847000000000001,0.1539298053248499,0.088625032681233451
4.4863499999999998,0.1539298053248499,0.088625032681233451
4.4880000000000004,0.1539298053248499,0.088625032681233451
4.4896500000000001,0.1539298053248499,0.088625032681233451
4.4912999999999998,0.1539298053248499,0.088625032681233451
4.4929500000000004,0.15426803015897672,0.088625032681233604
4.4946000000000002,0.15426803015897672,0.088961628629732115
4.4962499999999999,0.15426803015897672,0.088961628629732115
4.4978999999999996,0.15426803015897672,0.088961628629732115
4.4995500000000002,0.15426803015897672,0.088961628629732115
4.5011999999999999,0.15426803015897672,0.088961628629732115
4.5028499999999996,0.15426803015897672,0.088625032681233604
4.5045000000000002,0.15426803015897672,0.088625032681233451
4.5061499999999999,0.15426803015897672,0.088625032681233451
4.5077999999999996,0.15426803015897672,0.088625032681233451
4.5094500000000002,0.15460625499310354,0.088625032681233451
4.5110999999999999,0.15460625499310354,0.088961628629732115
4.5127499999999996,0.15460625499310354,0.088961628629732115
4.5144000000000002,0.15460625499310354,0.088961628629732115
4.5160499999999999,0.15494447982723036,0.088961628629732115
4.5176999999999996,0.15494447982723036,0.088961628629732115
4.5193500000000002,0.15494447982723036,0.088625032681233451
4.5209999999999999,0.15494447982723036,0.088625032681233451
4.5226499999999996,0.15494447982723036,0.088625032681233451
4.5243000000000002,0.15528270466135718,0.088625032681233451
4.5259499999999999,0.15528270466135718,0.088625032681233451
4.5275999999999996,0.15528270466135718,0.088961628629731962
4.5292500000000002,0.15562092949548401,0.088961628629732115
4.5308999999999999,0.15562092949548401,0.088961628629732115
4.5325499999999996,0.15595915432961083,0.088961628629732115
4.5342000000000002,0.15595915432961083,0.088961628629732115
4.5358499999999999,0.15595915432961083,0.088625032681233451
4.5374999999999996,0.15629737916373765,0.088625032681233451
4.5391500000000002,0.15629737916373765,0.088625032681233451
4.5407999999999999,0.15663560399786447,0.088625032681233451
4.5424499999999997,0.15663560399786447,0.088625032681233451
4.5441000000000003,0.15697382883199129,0.088961628629732115
4.54575,0.15697382883199129,0.088961628629732115
4.5473999999999997,0.15731205366611811,0.088961628629732115
4.5490500000000003,0.15765027850024493,0.088961628629732115
4.5507,0.15765027850024493,0.088961628629732115
4.5523499999999997,0.15765027850024493,0.088625032681233451
4.5540000000000003,0.15798850333437175,0.088625032681233451
4.55565,0.15832672816849858,0.088625032681233451
4.5572999999999997,0.15832672816849858,0.088625032681233451
4.5589500000000003,0.1586649530026254,0.088625032681233451
4.5606,0.159003177836752,0.088625032681233451
4.5622499999999997,0.15934140267087882,0.088625032681233451
4.5639000000000003,0.15967962750500564,0.088961628629732115
4.56555,0.16001785233913246,0.088961628629732115
4.5671999999999997,0.16035607717325928,0.088625032681233451
4.5688500000000003,0.1606943020073861,0.088625032681233451
4.5705,0.1606943020073861,0.088625032681233451
4.5721499999999997,0.16103252684151292,0.088625032681233451
4.5738000000000003,0.16170897650976657,0.088625032681233451
4.57545,0.16204720134389339,0.088625032681233451
4.5770999999999997,0.16238542617802021,0.088625032681233451
4.5787500000000003,0.16272365101214703,0.088625032681233451
4.5804,0.16340010068040067,0.088961628629732115
4.5820499999999997,0.16373832551452749,0.088961628629732115
4.5837000000000003,0.16407655034865432,0.088961628629732115
4.58535,0.16441477518278114,0.088625032681233451
4.5869999999999997,0.16509122485103478,0.088625032681233451
4.5886500000000003,0.1654294496851616,0.088625032681233451
4.5903,0.16610589935341524,0.088625032681233451
4.5919499999999998,0.16678234902166889,0.088625032681233451
4.5936000000000003,0.16712057385579571,0.088961628629732115
4.5952500000000001,0.16779702352404935,0.088961628629732115
4.5968999999999998,0.16847347319230299,0.088961628629732115
4.5985500000000004,0.16914992286055663,0.088961628629732115
4.6002000000000001,0.16982637252881028,0.088961628629732115
4.6018499999999998,0.1705028221970637,0.088625032681233451
4.6035000000000004,0.17117927186531734,0.088625032681233451
4.6051500000000001,0.17185572153357098,0.088625032681233451
4.6067999999999998,0.17253217120182462,0.088625032681233451
4.6084500000000004,0.17354684570420509,0.088625032681233451
4.6101000000000001,0.17456152020658555,0.088625032681233451
4.6117499999999998,0.17523796987483919,0.088961628629732115
4.6134000000000004,0.17625264437721966,0.088961628629732115
4.6150500000000001,0.1769290940454733,0.088961628629732115
4.6166999999999998,0.17794376854785376,0.088961628629732115
4.6183500000000004,0.1789584430502347,0.088625032681233451
4.6200000000000001,0.17997311755261469,0.088625032681233451
4.6216499999999998,0.18064956722086833,0.088288436732735009
4.6233000000000004,0.1816642417232491,0.088625032681233451
4.6249500000000001,0.18234069139150222,0.088625032681233451
4.6265999999999998,0.18301714105975586,0.088625032681233451
4.6282500000000004,0.18403181556213649,0.088625032681233604
4.6299000000000001,0.18437004039626315,0.088961628629732115
4.6315499999999998,0.18504649006451679,0.088961628629732115
4.6332000000000004,0.1857229397327706,0.088961628629731962
4.6348500000000001,0.18606116456689725,0.088625032681233451
4.6364999999999998,0.18673761423515089,0.088625032681233451
4.6381500000000004,0.1874140639034047,0.088625032681233451
4.6398000000000001,0.18775228873753136,0.088625032681233451
4.6414499999999999,0.188428738405785,0.088625032681233451
4.6431000000000004,0.18944341290816594,0.088625032681233451
4.6447500000000002,0.19045808741054593,0.088625032681233451
4.6463999999999999,0.19147276191292639,0.088961628629732115
4.6480500000000005,0.19282566124943429,0.088961628629731962
4.6497000000000002,0.19417856058594074,0.088625032681233451
4.6513499999999999,0.19553145992244803,0.088625032681233451
4.6529999999999996,0.19722258409308135,0.088625032681233451
4.6546500000000002,0.19891370826371624,0.088625032681233451
4.6562999999999999,0.20060483243435034,0.088625032681233451
4.6579499999999996,0.20229595660498367,0.088625032681233451
4.6596000000000002,0.20432530560974538,0.088625032681233451
4.6612499999999999,0.2066928794486329,0.088961628629732115
4.6628999999999996,0.20906045328751957,0.088961628629732115
4.6645500000000002,0.21176625196053522,0.088961628629732115
4.6661999999999999,0.21447205063354979,0.088961628629732115
4.6678499999999996,0.21785429897481626,0.088625032681233604
4.6695000000000002,0.221236547316086,0.088625032681233451
4.6711499999999999,0.22529524532560785,0.088288436732735009
4.6727999999999996,0.23003039300338096,0.088288436732735009
4.6744500000000002,0.23645666485179273,0.088625032681233451
4.6760999999999999,0.24389761120258258,0.088625032681233451
4.6777499999999996,0.25404435622638238,0.088625032681233451
4.6794000000000002,0.26858802409384008,0.088625032681233451
4.6810499999999999,0.29124908798033666,0.088961628629732115
4.6826999999999996,0.32777737006601609,0.088961628629732115
4.6843500000000002,0.38155511869219616,0.088625032681233451
4.6859999999999999,0.44581783717629109,0.088625032681233451
4.6876499999999997,0.51210990466514672,0.78874460555803716
4.6893000000000002,0.57671084798336825,3.2718129176312001
4.69095,0.63860599262857543,3.2718129176312001
4.6925999999999997,0.69745711376664121,3.2721495135796985
4.6942500000000003,0.75292598656343879,3.272486109528197
4.6959,0.80433616135071473,3.272486109528197
4.6975499999999997,0.85202586296259541,3.272486109528197
4.6992000000000003,0.89802444040384222,3.272486109528197
4.70085,0.94199366884032831,3.2721495135796985
4.7024999999999997,0.9846099979403069,3.2721495135796985
4.7041500000000003,1.0248587532013977,3.2721495135796985
4.7058,1.0630781594577279,3.2721495135796985
4.7074499999999997,1.0999446663775507,3.2721495135796985
4.7091000000000003,1.1368111732973736,3.2721495135796985
4.71075,1.174015905051323,3.272486109528197
4.7123999999999997,1.2105441871370193,3.272486109528197
4.7140500000000003,1.2460577947203348,3.272486109528197
4.7157,1.2805567278012697,3.272486109528197
4.7173499999999997,1.315055660882205,3.272486109528197
4.7190000000000003,1.3488781442948863,3.2721495135796985
4.72065,1.3810095035369336,3.2721495135796985
4.7222999999999997,1.4128026379448544,3.2721495135796985
4.7239500000000003,1.4432428730162679,3.2721495135796985
4.7256,1.4730066584194272,3.2721495135796985
4.7272499999999997,1.5024322189884602,3.272486109528197
4.7289000000000003,1.5294902057186055,3.272486109528197
4.73055,1.5545188434439896,3.272486109528197
4.7321999999999997,1.5788710315011203,3.272486109528197
4.7338500000000003,1.6018703202217437,3.272486109528197
4.7355,1.6238549344399869,3.2721495135796985
4.7371499999999997,1.6441484244875957,3.2721495135796985
4.7388000000000003,1.6634272400328241,3.2721495135796985
4.7404500000000001,1.6820296059097988,3.2721495135796985
4.7420999999999998,1.7006319717867737,3.2721495135796985
4.7437500000000004,1.7188961128296216,3.2721495135796985
4.7454000000000001,1.7374984787065966,3.272486109528197
4.7470499999999998,1.7557626197494445,3.272486109528197
4.7487000000000004,1.774703210460546,3.272486109528197
4.7503500000000001,1.7946584756740283,3.272486109528197
4.7519999999999998,1.8156284153898907,3.2721495135796985
4.7536500000000004,1.8379512544422605,3.2721495135796985
4.7553000000000001,1.8616269928311375,3.2721495135796985
4.7569499999999998,1.886317405722395,3.2721495135796985
4.7586000000000004,1.9123607179501598,3.2721495135796985
4.7602500000000001,1.9387422550120512,3.272486109528197
4.7618999999999998,1.9644473424056892,3.2721495135796985
4.7635500000000004,1.9894759801310735,3.272486109528197
4.7652000000000001,2.0124752688516967,3.272486109528197
4.7668499999999998,2.0341216582358133,3.2721495135796985
4.7685000000000004,2.0537386986151684,3.2721495135796985
4.7701500000000001,2.0709881651556357,3.2721495135796985
4.7717999999999998,2.0855318330230888,3.2721495135796985
4.7734500000000004,2.0977079270516588,3.2721495135796985
4.7751000000000001,2.1078546720754585,3.2721495135796985
4.7767499999999998,2.1156338432603752,3.2721495135796985
4.7784000000000004,2.1203689909381516,3.272486109528197
4.7800500000000001,2.1223983399429116,3.272486109528197
4.7816999999999998,2.122060115108785,3.272486109528197
4.7833500000000004,2.1196925412698953,3.272486109528197
4.7850000000000001,2.1156338432603752,3.2721495135796985
4.7866499999999998,2.1085311217437122,3.2721495135796985
4.7883000000000004,2.0990608263881563,3.2718129176312001
4.7899500000000002,2.0872229571937231,3.2721495135796985
4.7915999999999999,2.0750468631651575,3.2721495135796985
4.7932500000000005,2.0625325443024596,3.2721495135796985
4.7949000000000002,2.0496800006056466,3.272486109528197
4.7965499999999999,2.0364892320747008,3.272486109528197
4.7982000000000005,2.0246513628802574,3.272486109528197
4.7998500000000002,2.0134899433540774,3.2721495135796985
4.8014999999999999,2.0036814231643998,3.2721495135796985
4.8031500000000005,1.9948875774770989,3.2721495135796985
4.8048000000000002,1.9871084062921858,3.2721495135796985
4.8064499999999999,1.9803439096096496,3.2718129176312001
4.8080999999999996,1.9752705370977495,3.2721495135796985
4.8097500000000002,1.9715500639223522,3.2721495135796985
4.8113999999999999,1.9688442652493379,3.2721495135796985
4.8130499999999996,1.9664766914104512,3.272486109528197
4.8147000000000002,1.9641091175715624,3.272486109528197
4.8163499999999999,1.9624179934009283,3.272486109528197
4.8179999999999996,1.9607268692302948,3.2721495135796985
4.8196500000000002,1.9586975202255335,3.2721495135796985
4.8212999999999999,1.9559917215525189,3.2721495135796985
4.8229499999999996,1.9529476980453788,3.2718129176312001
4.8246000000000002,1.9495654497041093,3.2721495135796985
4.8262499999999999,1.9461832013628413,3.2721495135796985
4.8278999999999996,1.942462728187448,3.272486109528197
4.8295500000000002,1.9387422550120512,3.272486109528197
4.8311999999999999,1.9346835570025296,3.272486109528197
4.8328499999999996,1.9309630838271363,3.2721495135796985
4.8345000000000002,1.9275808354858663,3.2721495135796985
4.8361499999999999,1.9238603623104715,3.2721495135796985
4.8377999999999997,1.9204781139692049,3.2721495135796985
4.8394500000000003,1.9174340904620619,3.2721495135796985
4.8411,1.9143900669549205,3.2721495135796985
4.8427499999999997,1.9123607179501598,3.2721495135796985
4.8444000000000003,1.9099931441112721,3.2721495135796985
4.84605,1.9079637951065112,3.272486109528197
4.8476999999999997,1.9059344461017502,3.272486109528197
4.8493500000000003,1.9042433219311161,3.2721495135796985
4.851,1.902552197760482,3.2721495135796985
4.8526499999999997,1.9011992984239749,3.2721495135796985
4.8543000000000003,1.8995081742533408,3.2721495135796985
4.85595,1.8978170500827067,3.2718129176312001
4.8575999999999997,1.8961259259120726,3.2721495135796985
